…
# Trees_dbh <- rbind(Trees_dbh, Trees_dbh[1,]) ## Just for testing!
if (nrow(unique(Trees_dbh[,c("Id_transect", "Id_treeBase")]))!=nrow(Trees_dbh)) {
  stop("There is more than 1 dbh for each tree-base!")
} else print(" [Ok: there is one single 'dbh' for each 'treeBase'")
```

```
## [1] "Interventions" "Species"       "Transects"     "Trees_dbh"     "VertStr"      
## [1] " "
## [1] " |--------------------- "
## [1] "\\ /  Table: Interventions"
## # A tibble: 4 x 3
##   AntiErosionIntervention Id_transect AEI_lbl
##                     <chr>       <chr>   <chr>
## 1                 gabions           A    <NA>
## 2        mixed check dams           B    <NA>
## 3           wattle fences           C    <NA>
## # ... with 1 more rows
## [1] " "
## [1] " |--------------------- "
## [1] "\\ /  Table: VertStr"
## # A tibble: 3 x 3
##          Class Id_layer    layer
##          <chr>    <chr>    <chr>
## 1       Albero       L1    trees
## 2      Arbusto       L2   shrubs
## 3 Rinnovazione       L3 saplings
## [1] " "
## [1] " |--------------------- "
## [1] "\\ /  Table: Species"
## # A tibble: 4 x 2
##   Species           Species_name
##     <chr>                  <chr>
## 1    Pcan      Pinus canariensis
## 2    Earb          Erica arborea
## 3    Csym Cistus  symphytifolius
## # ... with 1 more rows
## [1] " "
## [1] " |--------------------- "
## [1] "\\ /  Table: Transects"
## # A tibble: 213 x 11
##   Id_transect Id_point Id_quadrant Id_layer Species Id_treeBase  Dist Height CrownDiam1 CrownDiam2  Form
##         <chr>    <int>       <int>    <chr>   <chr>       <int> <dbl>  <dbl>      <dbl>      <dbl> <chr>
## 1           A        1           1       L1    Pcan           1  4.10   12.8       3.50       3.80     I
## 2           A        1           1       L3    Pcan          NA  8.00    0.6       0.20       0.20     I
## 3           A        1           1       L2    Earb          NA  3.49    3.1       1.82       1.55     N
## # ... with 210 more rows
## [1] " "
## [1] " |--------------------- "
## [1] "\\ /  Table: Trees_dbh"
## # A tibble: 65 x 5
##   Id_transect Id_treeBase Id_stemBase `Id_bh-section`   dbh
##         <chr>       <int>       <int>           <int> <int>
## 1           A           1           1               1    41
## 2           A           4           1               1    36
## 3           A           7           1               1    56
## # ... with 62 more rows
## [1] " [Ok: there is one single 'dbh' for each 'treeBase'"
```
…
